Baseline Nowcast Evaluation: COVID NHSN
…
recent_archive <- nhsn_archive
recent_archive$time_type <- "day"
revision_sum <- recent_archive |>
  epiprocess::revision_analysis(value, min_waiting_period = NULL)

revision_sum$revision_behavior |>
  arrange(desc(rel_spread)) |>
  filter(
    geo_value %nin% c("vi", "as", "gu"),
    n_revisions > 1,
    time_value > "2025-05-01") |>
  print(n=30)

# A tibble: 828 × 11
   time_value geo_value n_revisions min_lag max_lag  lag_near_latest spread
   <date>     <chr>           <dbl> <drtn>  <drtn>   <drtn>           <dbl>
 1 2026-02-11 al                  2  7 days  21 days  14 days           126
 2 2025-06-18 ma                  2  7 days 315 days  14 days            72
 3 2025-11-05 ak                  2  7 days  28 days  28 days            15
 4 2025-12-17 id                  2  7 days  21 days  21 days            16
 5 2025-06-04 ok                  2  7 days  21 days  14 days            23
 6 2025-06-25 id                  2  7 days 140 days  14 days            10
 7 2025-08-20 id                  2  7 days  84 days  28 days            26
 8 2025-07-09 mt                  2  7 days 133 days  28 days             7
 9 2025-06-18 ok                  3  7 days  28 days  28 days            26
10 2025-05-07 ak                  2  7 days 119 days 119 days             6
11 2025-07-23 mt                  2  7 days 119 days  14 days             4
12 2026-03-18 or                  3  7 days  28 days  14 days            11
13 2025-06-18 mo                  2  7 days  91 days  21 days            28
14 2026-02-11 nh                  2  7 days  21 days  14 days            29
15 2026-02-18 or                  2  7 days  35 days  28 days            17
16 2025-06-25 ok                  4  7 days  56 days  14 days            25
17 2025-10-22 de                  2 21 days 154 days 154 days             7
18 2025-12-10 or                  4  7 days  56 days  28 days            15
19 2025-09-03 id                  2  7 days  70 days  14 days            24
20 2025-06-04 az                  3  7 days 161 days  42 days            44
21 2025-05-28 mo                  2  7 days  21 days  21 days            25
22 2026-03-11 or                  3  7 days  35 days  21 days            10
23 2025-06-11 az                  3  7 days 154 days  35 days            37
24 2025-06-18 mt                  2  7 days 154 days  14 days             6
25 2025-05-21 wa                  2  7 days  28 days  28 days            50
26 2025-12-17 mo                  3  7 days  49 days  49 days            92
27 2026-03-04 or                  3  7 days  42 days  21 days             9
28 2025-11-12 wv                  2  7 days  77 days  14 days            24
29 2025-12-17 ga                  3  7 days  63 days  14 days            42
30 2025-07-09 id                  2  7 days 126 days  21 days             9
# ℹ 798 more rows
# ℹ 4 more variables: rel_spread <dbl>, min_value <dbl>, max_value <dbl>,
#   median_value <dbl>
…
